clk/simulation/qsim/clk1hz.msim.vcd
$comment
	File created using the following command:
		vcd file clk1hz.msim.vcd -direction
$end
$date
	Thu Nov 04 14:41:37 2021
$end
$version
	ModelSim Version 10.1d
$end
$timescale
	1ps
$end
$scope module clk1hz_vlg_vec_tst $end
$var reg 1 ! clk50 $end
$var wire 1 " clk1 $end
$var wire 1 # sampler $end
$scope module i1 $end
$var wire 1 $ gnd $end
$var wire 1 % vcc $end
$var wire 1 & unknown $end
$var tri1 1 ' devclrn $end
$var tri1 1 ( devpor $end
$var tri1 1 ) devoe $end
$var wire 1 * u1|Add0~2_combout $end
$var wire 1 + u1|Add0~4_combout $end
$var wire 1 , u1|Add0~14_combout $end
$var wire 1 - u1|Add0~24_combout $end
$var wire 1 . u1|Add0~26_combout $end
$var wire 1 / u1|Add0~30_combout $end
$var wire 1 0 u1|Add0~38_combout $end
$var wire 1 1 u1|Add0~46_combout $end
$var wire 1 2 u1|Equal0~3_combout $end
$var wire 1 3 u1|qout~4_combout $end
$var wire 1 4 u1|qout~8_combout $end
$var wire 1 5 u1|qout~9_combout $end
$var wire 1 6 clk1~output_o $end
$var wire 1 7 clk50~input_o $end
$var wire 1 8 clk50~inputclkctrl_outclk $end
$var wire 1 9 u1|Add0~0_combout $end
$var wire 1 : u1|Add0~1 $end
$var wire 1 ; u1|Add0~3 $end
$var wire 1 < u1|Add0~5 $end
$var wire 1 = u1|Add0~6_combout $end
$var wire 1 > u1|Add0~7 $end
$var wire 1 ? u1|Add0~8_combout $end
$var wire 1 @ u1|Add0~9 $end
$var wire 1 A u1|Add0~10_combout $end
$var wire 1 B u1|Add0~11 $end
$var wire 1 C u1|Add0~12_combout $end
$var wire 1 D u1|qout~11_combout $end
$var wire 1 E u1|Add0~13 $end
$var wire 1 F u1|Add0~15 $end
$var wire 1 G u1|Add0~16_combout $end
$var wire 1 H u1|Add0~17 $end
$var wire 1 I u1|Add0~19 $end
$var wire 1 J u1|Add0~20_combout $end
$var wire 1 K u1|Add0~21 $end
$var wire 1 L u1|Add0~22_combout $end
$var wire 1 M u1|qout~10_combout $end
$var wire 1 N u1|Add0~23 $end
$var wire 1 O u1|Add0~25 $end
$var wire 1 P u1|Add0~27 $end
$var wire 1 Q u1|Add0~29 $end
$var wire 1 R u1|Add0~31 $end
$var wire 1 S u1|Add0~32_combout $end
$var wire 1 T u1|qout~6_combout $end
$var wire 1 U u1|Add0~33 $end
$var wire 1 V u1|Add0~34_combout $end
$var wire 1 W u1|Add0~28_combout $end
$var wire 1 X u1|qout~7_combout $end
$var wire 1 Y u1|Equal0~2_combout $end
$var wire 1 Z u1|Add0~35 $end
$var wire 1 [ u1|Add0~36_combout $end
$var wire 1 \ u1|qout~5_combout $end
$var wire 1 ] u1|Add0~37 $end
$var wire 1 ^ u1|Add0~39 $end
$var wire 1 _ u1|Add0~40_combout $end
$var wire 1 ` u1|qout~3_combout $end
$var wire 1 a u1|Add0~41 $end
$var wire 1 b u1|Add0~42_combout $end
$var wire 1 c u1|qout~2_combout $end
$var wire 1 d u1|Equal0~1_combout $end
$var wire 1 e u1|Add0~43 $end
$var wire 1 f u1|Add0~44_combout $end
$var wire 1 g u1|qout~1_combout $end
$var wire 1 h u1|Add0~45 $end
$var wire 1 i u1|Add0~47 $end
$var wire 1 j u1|Add0~48_combout $end
$var wire 1 k u1|qout~0_combout $end
$var wire 1 l u1|Equal0~0_combout $end
$var wire 1 m u1|Equal0~4_combout $end
$var wire 1 n u1|Add0~18_combout $end
$var wire 1 o u1|Equal0~5_combout $end
$var wire 1 p u1|Equal0~6_combout $end
$var wire 1 q u1|Equal0~7_combout $end
$var wire 1 r clk1~0_combout $end
$var wire 1 s clk1~reg0_q $end
$var wire 1 t u1|qout [24] $end
$var wire 1 u u1|qout [23] $end
$var wire 1 v u1|qout [22] $end
$var wire 1 w u1|qout [21] $end
$var wire 1 x u1|qout [20] $end
$var wire 1 y u1|qout [19] $end
$var wire 1 z u1|qout [18] $end
$var wire 1 { u1|qout [17] $end
$var wire 1 | u1|qout [16] $end
$var wire 1 } u1|qout [15] $end
$var wire 1 ~ u1|qout [14] $end
$var wire 1 !! u1|qout [13] $end
$var wire 1 "! u1|qout [12] $end
$var wire 1 #! u1|qout [11] $end
$var wire 1 $! u1|qout [10] $end
$var wire 1 %! u1|qout [9] $end
$var wire 1 &! u1|qout [8] $end
$var wire 1 '! u1|qout [7] $end
$var wire 1 (! u1|qout [6] $end
$var wire 1 )! u1|qout [5] $end
$var wire 1 *! u1|qout [4] $end
$var wire 1 +! u1|qout [3] $end
$var wire 1 ,! u1|qout [2] $end
$var wire 1 -! u1|qout [1] $end
$var wire 1 .! u1|qout [0] $end
$upscope $end
$upscope $end
$enddefinitions $end
#0
$dumpvars
0!
x"
x#
0$
1%
x&
1'
1(
1)
x*
x+
x,
x-
x.
x/
x0
x1
x2
x3
x4
x5
x6
07
x8
x9
x:
x;
x<
x=
x>
x?
x@
xA
xB
xC
xD
xE
xF
xG
xH
xI
xJ
xK
xL
xM
xN
xO
xP
xQ
xR
xS
xT
xU
xV
xW
xX
xY
xZ
x[
x\
x]
x^
x_
x`
xa
xb
xc
xd
xe
xf
xg
xh
xi
xj
xk
xl
xm
xn
xo
xp
xq
xr
0s
0.!
0-!
0,!
0+!
0*!
0)!
0(!
0'!
0&!
0%!
0$!
0#!
0"!
0!!
0~
0}
0|
0{
0z
0y
0x
0w
0v
0u
0t
$end
#173
08
#478
0p
#500
1!
0#
#637
0l
#750
0H
#751
0E
#752
0@
#753
0d
#756
0<
#761
0K
#762
0:
#764
0]
#769
0Q
#796
1o
#802
02
#808
19
#883
1I
#885
1F
#887
1B
#888
1>
#893
0Y
#896
1;
1R
#897
1e
1Z
#898
0U
1i
#904
1N
#905
0a
#925
0h
#933
0O
#1000
0!
1#
#1004
0m
#1062
1P
#1063
1^
#1262
0n
#1263
0,
#1264
0A
#1268
0=
#1273
0L
#1274
0*
#1276
00
#1281
0/
#1395
0J
#1397
0G
#1399
0C
#1400
0?
#1408
0S
0+
#1409
0[
0f
#1410
0j
0V
#1416
0-
#1417
0b
#1437
01
#1445
0.
#1472
0q
#1500
1!
0#
#1574
0W
#1575
0_
#1778
0\
#1784
0c
#1792
0M
#1946
0r
#1954
0k
#1973
03
04
#2000
0!
1#
#2074
0g
#2091
0X
0`
#2097
0D
#2105
0T
#2116
05
#2500
1!
0#
#3000
0!
1#
#3500
1!
0#
#4000
0!
1#
#4325
06
0"
#4500
1!
0#
#5000
0!
1#
#5500
1!
0#
#6000
0!
1#
#6500
1!
0#
#7000
0!
1#
#7500
1!
0#
#8000
0!
1#
#8500
1!
0#
#9000
0!
1#
#9500
1!
0#
#10000
0!
1#
#10500
1!
0#
#11000
0!
1#
#11500
1!
0#
#12000
0!
1#
#12500
1!
0#
#13000
0!
1#
#13500
1!
0#
#14000
0!
1#
#14500
1!
0#
#15000
0!
1#
#15500
1!
0#
#16000
0!
1#
#16500
1!
0#
#17000
0!
1#
#17500
1!
0#
#18000
0!
1#
#18500
1!
0#
#19000
0!
1#
#19500
1!
0#
#20000
0!
1#
#20500
1!
0#
#21000
0!
1#
#21500
1!
0#
#22000
0!
1#
#22500
1!
0#
#23000
0!
1#
#23500
1!
0#
#24000
0!
1#
#24500
1!
0#
#25000
0!
1#
#25500
1!
0#
#26000
0!
1#
#26500
1!
0#
#27000
0!
1#
#27500
1!
0#
#28000
0!
1#
#28500
1!
0#
#29000
0!
1#
#29500
1!
0#
#30000
0!
1#
#30500
1!
0#
#31000
0!
1#
#31500
1!
0#
#32000
0!
1#
#32500
1!
0#
#33000
0!
1#
#33500
1!
0#
#34000
0!
1#
#34500
1!
0#
#35000
0!
1#
#35500
1!
0#
#36000
0!
1#
#36500
1!
0#
#37000
0!
1#
#37500
1!
0#
#38000
0!
1#
#38500
1!
0#
#39000
0!
1#
#39500
1!
0#
#40000
0!
1#
#40500
1!
0#
#41000
0!
1#
#41500
1!
0#
#42000
0!
1#
#42500
1!
0#
#43000
0!
1#
#43500
1!
0#
#44000
0!
1#
#44500
1!
0#
#45000
0!
1#
#45500
1!
0#
#46000
0!
1#
#46500
1!
0#
#47000
0!
1#
#47500
1!
0#
#48000
0!
1#
#48500
1!
0#
#49000
0!
1#
#49500
1!
0#
#50000
0!
1#
#50500
1!
0#
#51000
0!
1#
#51500
1!
0#
#52000
0!
1#
#52500
1!
0#
#53000
0!
1#
#53500
1!
0#
#54000
0!
1#
#54500
1!
0#
#55000
0!
1#
#55500
1!
0#
#56000
0!
1#
#56500
1!
0#
#57000
0!
1#
#57500
1!
0#
#58000
0!
1#
#58500
1!
0#
#59000
0!
1#
#59500
1!
0#
#60000
0!
1#
#60500
1!
0#
#61000
0!
1#
#61500
1!
0#
#62000
0!
1#
#62500
1!
0#
#63000
0!
1#
#63500
1!
0#
#64000
0!
1#
#64500
1!
0#
#65000
0!
1#
#65500
1!
0#
#66000
0!
1#
#66500
1!
0#
#67000
0!
1#
#67500
1!
0#
#68000
0!
1#
#68500
1!
0#
#69000
0!
1#
#69500
1!
0#
#70000
0!
1#
#70500
1!
0#
#71000
0!
1#
#71500
1!
0#
#72000
0!
1#
#72500
1!
0#
#73000
0!
1#
#73500
1!
0#
#74000
0!
1#
#74500
1!
0#
#75000
0!
1#
#75500
1!
0#
#76000
0!
1#
#76500
1!
0#
#77000
0!
1#
#77500
1!
0#
#78000
0!
1#
#78500
1!
0#
#79000
0!
1#
#79500
1!
0#
#80000
0!
1#
#80500
1!
0#
#81000
0!
1#
#81500
1!
0#
#82000
0!
1#
#82500
1!
0#
#83000
0!
1#
#83500
1!
0#
#84000
0!
1#
#84500
1!
0#
#85000
0!
1#
#85500
1!
0#
#86000
0!
1#
#86500
1!
0#
#87000
0!
1#
#87500
1!
0#
#88000
0!
1#
#88500
1!
0#
#89000
0!
1#
#89500
1!
0#
#90000
0!
1#
#90500
1!
0#
#91000
0!
1#
#91500
1!
0#
#92000
0!
1#
#92500
1!
0#
#93000
0!
1#
#93500
1!
0#
#94000
0!
1#
#94500
1!
0#
#95000
0!
1#
#95500
1!
0#
#96000
0!
1#
#96500
1!
0#
#97000
0!
1#
#97500
1!
0#
#98000
0!
1#
#98500
1!
0#
#99000
0!
1#
#99500
1!
0#
#100000
0!
1#
#100500
1!
0#
#101000
0!
1#
#101500
1!
0#
#102000
0!
1#
#102500
1!
0#
#103000
0!
1#
#103500
1!
0#
#104000
0!
1#
#104500
1!
0#
#105000
0!
1#
#105500
1!
0#
#106000
0!
1#
#106500
1!
0#
#107000
0!
1#
#107500
1!
0#
#108000
0!
1#
#108500
1!
0#
#109000
0!
1#
#109500
1!
0#
#110000
0!
1#
#110500
1!
0#
#111000
0!
1#
#111500
1!
0#
#112000
0!
1#
#112500
1!
0#
#113000
0!
1#
#113500
1!
0#
#114000
0!
1#
#114500
1!
0#
#115000
0!
1#
#115500
1!
0#
#116000
0!
1#
#116500
1!
0#
#117000
0!
1#
#117500
1!
0#
#118000
0!
1#
#118500
1!
0#
#119000
0!
1#
#119500
1!
0#
#120000
0!
1#
#120500
1!
0#
#121000
0!
1#
#121500
1!
0#
#122000
0!
1#
#122500
1!
0#
#123000
0!
1#
#123500
1!
0#
#124000
0!
1#
#124500
1!
0#
#125000
0!
1#
#125500
1!
0#
#126000
0!
1#
#126500
1!
0#
#127000
0!
1#
#127500
1!
0#
#128000
0!
1#
#128500
1!
0#
#129000
0!
1#
#129500
1!
0#
#130000
0!
1#
#130500
1!
0#
#131000
0!
1#
#131500
1!
0#
#132000
0!
1#
#132500
1!
0#
#133000
0!
1#
#133500
1!
0#
#134000
0!
1#
#134500
1!
0#
#135000
0!
1#
#135500
1!
0#
#136000
0!
1#
#136500
1!
0#
#137000
0!
1#
#137500
1!
0#
#138000
0!
1#
#138500
1!
0#
#139000
0!
1#
#139500
1!
0#
#140000
0!
1#
#140500
1!
0#
#141000
0!
1#
#141500
1!
0#
#142000
0!
1#
#142500
1!
0#
#143000
0!
1#
#143500
1!
0#
#144000
0!
1#
#144500
1!
0#
#145000
0!
1#
#145500
1!
0#
#146000
0!
1#
#146500
1!
0#
#147000
0!
1#
#147500
1!
0#
#148000
0!
1#
#148500
1!
0#
#149000
0!
1#
#149500
1!
0#
#150000
0!
1#
#150500
1!
0#
#151000
0!
1#
#151500
1!
0#
#152000
0!
1#
#152500
1!
0#
#153000
0!
1#
#153500
1!
0#
#154000
0!
1#
#154500
1!
0#
#155000
0!
1#
#155500
1!
0#
#156000
0!
1#
#156500
1!
0#
#157000
0!
1#
#157500
1!
0#
#158000
0!
1#
#158500
1!
0#
#159000
0!
1#
#159500
1!
0#
#160000
0!
1#
#160500
1!
0#
#161000
0!
1#
#161500
1!
0#
#162000
0!
1#
#162500
1!
0#
#163000
0!
1#
#163500
1!
0#
#164000
0!
1#
#164500
1!
0#
#165000
0!
1#
#165500
1!
0#
#166000
0!
1#
#166500
1!
0#
#167000
0!
1#
#167500
1!
0#
#168000
0!
1#
#168500
1!
0#
#169000
0!
1#
#169500
1!
0#
#170000
0!
1#
#170500
1!
0#
#171000
0!
1#
#171500
1!
0#
#172000
0!
1#
#172500
1!
0#
#173000
0!
1#
#173500
1!
0#
#174000
0!
1#
#174500
1!
0#
#175000
0!
1#
#175500
1!
0#
#176000
0!
1#
#176500
1!
0#
#177000
0!
1#
#177500
1!
0#
#178000
0!
1#
#178500
1!
0#
#179000
0!
1#
#179500
1!
0#
#180000
0!
1#
#180500
1!
0#
#181000
0!
1#
#181500
1!
0#
#182000
0!
1#
#182500
1!
0#
#183000
0!
1#
#183500
1!
0#
#184000
0!
1#
#184500
1!
0#
#185000
0!
1#
#185500
1!
0#
#186000
0!
1#
#186500
1!
0#
#187000
0!
1#
#187500
1!
0#
#188000
0!
1#
#188500
1!
0#
#189000
0!
1#
#189500
1!
0#
#190000
0!
1#
#190500
1!
0#
#191000
0!
1#
#191500
1!
0#
#192000
0!
1#
#192500
1!
0#
#193000
0!
1#
#193500
1!
0#
#194000
0!
1#
#194500
1!
0#
#195000
0!
1#
#195500
1!
0#
#196000
0!
1#
#196500
1!
0#
#197000
0!
1#
#197500
1!
0#
#198000
0!
1#
#198500
1!
0#
#199000
0!
1#
#199500
1!
0#
#200000
0!
1#
#200500
1!
0#
#201000
0!
1#
#201500
1!
0#
#202000
0!
1#
#202500
1!
0#
#203000
0!
1#
#203500
1!
0#
#204000
0!
1#
#204500
1!
0#
#205000
0!
1#
#205500
1!
0#
#206000
0!
1#
#206500
1!
0#
#207000
0!
1#
#207500
1!
0#
#208000
0!
1#
#208500
1!
0#
#209000
0!
1#
#209500
1!
0#
#210000
0!
1#
#210500
1!
0#
#211000
0!
1#
#211500
1!
0#
#212000
0!
1#
#212500
1!
0#
#213000
0!
1#
#213500
1!
0#
#214000
0!
1#
#214500
1!
0#
#215000
0!
1#
#215500
1!
0#
#216000
0!
1#
#216500
1!
0#
#217000
0!
1#
#217500
1!
0#
#218000
0!
1#
#218500
1!
0#
#219000
0!
1#
#219500
1!
0#
#220000
0!
1#
#220500
1!
0#
#221000
0!
1#
#221500
1!
0#
#222000
0!
1#
#222500
1!
0#
#223000
0!
1#
#223500
1!
0#
#224000
0!
1#
#224500
1!
0#
#225000
0!
1#
#225500
1!
0#
#226000
0!
1#
#226500
1!
0#
#227000
0!
1#
#227500
1!
0#
#228000
0!
1#
#228500
1!
0#
#229000
0!
1#
#229500
1!
0#
#230000
0!
1#
#230500
1!
0#
#231000
0!
1#
#231500
1!
0#
#232000
0!
1#
#232500
1!
0#
#233000
0!
1#
#233500
1!
0#
#234000
0!
1#
#234500
1!
0#
#235000
0!
1#
#235500
1!
0#
#236000
0!
1#
#236500
1!
0#
#237000
0!
1#
#237500
1!
0#
#238000
0!
1#
#238500
1!
0#
#239000
0!
1#
#239500
1!
0#
#240000
0!
1#
#240500
1!
0#
#241000
0!
1#
#241500
1!
0#
#242000
0!
1#
#242500
1!
0#
#243000
0!
1#
#243500
1!
0#
#244000
0!
1#
#244500
1!
0#
#245000
0!
1#
#245500
1!
0#
#246000
0!
1#
#246500
1!
0#
#247000
0!
1#
#247500
1!
0#
#248000
0!
1#
#248500
1!
0#
#249000
0!
1#
#249500
1!
0#
#250000
0!
1#
#250500
1!
0#
#251000
0!
1#
#251500
1!
0#
#252000
0!
1#
#252500
1!
0#
#253000
0!
1#
#253500
1!
0#
#254000
0!
1#
#254500
1!
0#
#255000
0!
1#
#255500
1!
0#
#256000
0!
1#
#256500
1!
0#
#257000
0!
1#
#257500
1!
0#
#258000
0!
1#
#258500
1!
0#
#259000
0!
1#
#259500
1!
0#
#260000
0!
1#
#260500
1!
0#
#261000
0!
1#
#261500
1!
0#
#262000
0!
1#
#262500
1!
0#
#263000
0!
1#
#263500
1!
0#
#264000
0!
1#
#264500
1!
0#
#265000
0!
1#
#265500
1!
0#
#266000
0!
1#
#266500
1!
0#
#267000
0!
1#
#267500
1!
0#
#268000
0!
1#
#268500
1!
0#
#269000
0!
1#
#269500
1!
0#
#270000
0!
1#
#270500
1!
0#
#271000
0!
1#
#271500
1!
0#
#272000
0!
1#
#272500
1!
0#
#273000
0!
1#
#273500
1!
0#
#274000
0!
1#
#274500
1!
0#
#275000
0!
1#
#275500
1!
0#
#276000
0!
1#
#276500
1!
0#
#277000
0!
1#
#277500
1!
0#
#278000
0!
1#
#278500
1!
0#
#279000
0!
1#
#279500
1!
0#
#280000
0!
1#
#280500
1!
0#
#281000
0!
1#
#281500
1!
0#
#282000
0!
1#
#282500
1!
0#
#283000
0!
1#
#283500
1!
0#
#284000
0!
1#
#284500
1!
0#
#285000
0!
1#
#285500
1!
0#
#286000
0!
1#
#286500
1!
0#
#287000
0!
1#
#287500
1!
0#
#288000
0!
1#
#288500
1!
0#
#289000
0!
1#
#289500
1!
0#
#290000
0!
1#
#290500
1!
0#
#291000
0!
1#
#291500
1!
0#
#292000
0!
1#
#292500
1!
0#
#293000
0!
1#
#293500
1!
0#
#294000
0!
1#
#294500
1!
0#
#295000
0!
1#
#295500
1!
0#
#296000
0!
1#
#296500
1!
0#
#297000
0!
1#
#297500
1!
0#
#298000
0!
1#
#298500
1!
0#
#299000
0!
1#
#299500
1!
0#
#300000
0!
1#
#300500
1!
0#
#301000
0!
1#
#301500
1!
0#
#302000
0!
1#
#302500
1!
0#
#303000
0!
1#
#303500
1!
0#
#304000
0!
1#
#304500
1!
0#
#305000
0!
1#
#305500
1!
0#
#306000
0!
1#
#306500
1!
0#
#307000
0!
1#
#307500
1!
0#
#308000
0!
1#
#308500
1!
0#
#309000
0!
1#
#309500
1!
0#
#310000
0!
1#
#310500
1!
0#
#311000
0!
1#
#311500
1!
0#
#312000
0!
1#
#312500
1!
0#
#313000
0!
1#
#313500
1!
0#
#314000
0!
1#
#314500
1!
0#
#315000
0!
1#
#315500
1!
0#
#316000
0!
1#
#316500
1!
0#
#317000
0!
1#
#317500
1!
0#
#318000
0!
1#
#318500
1!
0#
#319000
0!
1#
#319500
1!
0#
#320000
0!
1#
#320500
1!
0#
#321000
0!
1#
#321500
1!
0#
#322000
0!
1#
#322500
1!
0#
#323000
0!
1#
#323500
1!
0#
#324000
0!
1#
#324500
1!
0#
#325000
0!
1#
#325500
1!
0#
#326000
0!
1#
#326500
1!
0#
#327000
0!
1#
#327500
1!
0#
#328000
0!
1#
#328500
1!
0#
#329000
0!
1#
#329500
1!
0#
#330000
0!
1#
#330500
1!
0#
#331000
0!
1#
#331500
1!
0#
#332000
0!
1#
#332500
1!
0#
#333000
0!
1#
#333500
1!
0#
#334000
0!
1#
#334500
1!
0#
#335000
0!
1#
#335500
1!
0#
#336000
0!
1#
#336500
1!
0#
#337000
0!
1#
#337500
1!
0#
#338000
0!
1#
#338500
1!
0#
#339000
0!
1#
#339500
1!
0#
#340000
0!
1#
#340500
1!
0#
#341000
0!
1#
#341500
1!
0#
#342000
0!
1#
#342500
1!
0#
#343000
0!
1#
#343500
1!
0#
#344000
0!
1#
#344500
1!
0#
#345000
0!
1#
#345500
1!
0#
#346000
0!
1#
#346500
1!
0#
#347000
0!
1#
#347500
1!
0#
#348000
0!
1#
#348500
1!
0#
#349000
0!
1#
#349500
1!
0#
#350000
0!
1#
#350500
1!
0#
#351000
0!
1#
#351500
1!
0#
#352000
0!
1#
#352500
1!
0#
#353000
0!
1#
#353500
1!
0#
#354000
0!
1#
#354500
1!
0#
#355000
0!
1#
#355500
1!
0#
#356000
0!
1#
#356500
1!
0#
#357000
0!
1#
#357500
1!
0#
#358000
0!
1#
#358500
1!
0#
#359000
0!
1#
#359500
1!
0#
#360000
0!
1#
#360500
1!
0#
#361000
0!
1#
#361500
1!
0#
#362000
0!
1#
#362500
1!
0#
#363000
0!
1#
#363500
1!
0#
#364000
0!
1#
#364500
1!
0#
#365000
0!
1#
#365500
1!
0#
#366000
0!
1#
#366500
1!
0#
#367000
0!
1#
#367500
1!
0#
#368000
0!
1#
#368500
1!
0#
#369000
0!
1#
#369500
1!
0#
#370000
0!
1#
#370500
1!
0#
#371000
0!
1#
#371500
1!
0#
#372000
0!
1#
#372500
1!
0#
#373000
0!
1#
#373500
1!
0#
#374000
0!
1#
#374500
1!
0#
#375000
0!
1#
#375500
1!
0#
#376000
0!
1#
#376500
1!
0#
#377000
0!
1#
#377500
1!
0#
#378000
0!
1#
#378500
1!
0#
#379000
0!
1#
#379500
1!
0#
#380000
0!
1#
#380500
1!
0#
#381000
0!
1#
#381500
1!
0#
#382000
0!
1#
#382500
1!
0#
#383000
0!
1#
#383500
1!
0#
#384000
0!
1#
#384500
1!
0#
#385000
0!
1#
#385500
1!
0#
#386000
0!
1#
#386500
1!
0#
#387000
0!
1#
#387500
1!
0#
#388000
0!
1#
#388500
1!
0#
#389000
0!
1#
#389500
1!
0#
#390000
0!
1#
#390500
1!
0#
#391000
0!
1#
#391500
1!
0#
#392000
0!
1#
#392500
1!
0#
#393000
0!
1#
#393500
1!
0#
#394000
0!
1#
#394500
1!
0#
#395000
0!
1#
#395500
1!
0#
#396000
0!
1#
#396500
1!
0#
#397000
0!
1#
#397500
1!
0#
#398000
0!
1#
#398500
1!
0#
#399000
0!
1#
#399500
1!
0#
#400000
0!
1#
#400500
1!
0#
#401000
0!
1#
#401500
1!
0#
#402000
0!
1#
#402500
1!
0#
#403000
0!
1#
#403500
1!
0#
#404000
0!
1#
#404500
1!
0#
#405000
0!
1#
#405500
1!
0#
#406000
0!
1#
#406500
1!
0#
#407000
0!
1#
#407500
1!
0#
#408000
0!
1#
#408500
1!
0#
#409000
0!
1#
#409500
1!
0#
#410000
0!
1#
#410500
1!
0#
#411000
0!
1#
#411500
1!
0#
#412000
0!
1#
#412500
1!
0#
#413000
0!
1#
#413500
1!
0#
#414000
0!
1#
#414500
1!
0#
#415000
0!
1#
#415500
1!
0#
#416000
0!
1#
#416500
1!
0#
#417000
0!
1#
#417500
1!
0#
#418000
0!
1#
#418500
1!
0#
#419000
0!
1#
#419500
1!
0#
#420000
0!
1#
#420500
1!
0#
#421000
0!
1#
#421500
1!
0#
#422000
0!
1#
#422500
1!
0#
#423000
0!
1#
#423500
1!
0#
#424000
0!
1#
#424500
1!
0#
#425000
0!
1#
#425500
1!
0#
#426000
0!
1#
#426500
1!
0#
#427000
0!
1#
#427500
1!
0#
#428000
0!
1#
#428500
1!
0#
#429000
0!
1#
#429500
1!
0#
#430000
0!
1#
#430500
1!
0#
#431000
0!
1#
#431500
1!
0#
#432000
0!
1#
#432500
1!
0#
#433000
0!
1#
#433500
1!
0#
#434000
0!
1#
#434500
1!
0#
#435000
0!
1#
#435500
1!
0#
#436000
0!
1#
#436500
1!
0#
#437000
0!
1#
#437500
1!
0#
#438000
0!
1#
#438500
1!
0#
#439000
0!
1#
#439500
1!
0#
#440000
0!
1#
#440500
1!
0#
#441000
0!
1#
#441500
1!
0#
#442000
0!
1#
#442500
1!
0#
#443000
0!
1#
#443500
1!
0#
#444000
0!
1#
#444500
1!
0#
#445000
0!
1#
#445500
1!
0#
#446000
0!
1#
#446500
1!
0#
#447000
0!
1#
#447500
1!
0#
#448000
0!
1#
#448500
1!
0#
#449000
0!
1#
#449500
1!
0#
#450000
0!
1#
#450500
1!
0#
#451000
0!
1#
#451500
1!
0#
#452000
0!
1#
#452500
1!
0#
#453000
0!
1#
#453500
1!
0#
#454000
0!
1#
#454500
1!
0#
#455000
0!
1#
#455500
1!
0#
#456000
0!
1#
#456500
1!
0#
#457000
0!
1#
#457500
1!
0#
#458000
0!
1#
#458500
1!
0#
#459000
0!
1#
#459500
1!
0#
#460000
0!
1#
#460500
1!
0#
#461000
0!
1#
#461500
1!
0#
#462000
0!
1#
#462500
1!
0#
#463000
0!
1#
#463500
1!
0#
#464000
0!
1#
#464500
1!
0#
#465000
0!
1#
#465500
1!
0#
#466000
0!
1#
#466500
1!
0#
#467000
0!
1#
#467500
1!
0#
#468000
0!
1#
#468500
1!
0#
#469000
0!
1#
#469500
1!
0#
#470000
0!
1#
#470500
1!
0#
#471000
0!
1#
#471500
1!
0#
#472000
0!
1#
#472500
1!
0#
#473000
0!
1#
#473500
1!
0#
#474000
0!
1#
#474500
1!
0#
#475000
0!
1#
#475500
1!
0#
#476000
0!
1#
#476500
1!
0#
#477000
0!
1#
#477500
1!
0#
#478000
0!
1#
#478500
1!
0#
#479000
0!
1#
#479500
1!
0#
#480000
0!
1#
#480500
1!
0#
#481000
0!
1#
#481500
1!
0#
#482000
0!
1#
#482500
1!
0#
#483000
0!
1#
#483500
1!
0#
#484000
0!
1#
#484500
1!
0#
#485000
0!
1#
#485500
1!
0#
#486000
0!
1#
#486500
1!
0#
#487000
0!
1#
#487500
1!
0#
#488000
0!
1#
#488500
1!
0#
#489000
0!
1#
#489500
1!
0#
#490000
0!
1#
#490500
1!
0#
#491000
0!
1#
#491500
1!
0#
#492000
0!
1#
#492500
1!
0#
#493000
0!
1#
#493500
1!
0#
#494000
0!
1#
#494500
1!
0#
#495000
0!
1#
#495500
1!
0#
#496000
0!
1#
#496500
1!
0#
#497000
0!
1#
#497500
1!
0#
#498000
0!
1#
#498500
1!
0#
#499000
0!
1#
#499500
1!
0#
#500000
0!
1#
#500500
1!
0#
#501000
0!
1#
#501500
1!
0#
#502000
0!
1#
#502500
1!
0#
#503000
0!
1#
#503500
1!
0#
#504000
0!
1#
#504500
1!
0#
#505000
0!
1#
#505500
1!
0#
#506000
0!
1#
#506500
1!
0#
#507000
0!
1#
#507500
1!
0#
#508000
0!
1#
#508500
1!
0#
#509000
0!
1#
#509500
1!
0#
#510000
0!
1#
#510500
1!
0#
#511000
0!
1#
#511500
1!
0#
#512000
0!
1#
#512500
1!
0#
#513000
0!
1#
#513500
1!
0#
#514000
0!
1#
#514500
1!
0#
#515000
0!
1#
#515500
1!
0#
#516000
0!
1#
#516500
1!
0#
#517000
0!
1#
#517500
1!
0#
#518000
0!
1#
#518500
1!
0#
#519000
0!
1#
#519500
1!
0#
#520000
0!
1#
#520500
1!
0#
#521000
0!
1#
#521500
1!
0#
#522000
0!
1#
#522500
1!
0#
#523000
0!
1#
#523500
1!
0#
#524000
0!
1#
#524500
1!
0#
#525000
0!
1#
#525500
1!
0#
#526000
0!
1#
#526500
1!
0#
#527000
0!
1#
#527500
1!
0#
#528000
0!
1#
#528500
1!
0#
#529000
0!
1#
#529500
1!
0#
#530000
0!
1#
#530500
1!
0#
#531000
0!
1#
#531500
1!
0#
#532000
0!
1#
#532500
1!
0#
#533000
0!
1#
#533500
1!
0#
#534000
0!
1#
#534500
1!
0#
#535000
0!
1#
#535500
1!
0#
#536000
0!
1#
#536500
1!
0#
#537000
0!
1#
#537500
1!
0#
#538000
0!
1#
#538500
1!
0#
#539000
0!
1#
#539500
1!
0#
#540000
0!
1#
#540500
1!
0#
#541000
0!
1#
#541500
1!
0#
#542000
0!
1#
#542500
1!
0#
#543000
0!
1#
#543500
1!
0#
#544000
0!
1#
#544500
1!
0#
#545000
0!
1#
#545500
1!
0#
#546000
0!
1#
#546500
1!
0#
#547000
0!
1#
#547500
1!
0#
#548000
0!
1#
#548500
1!
0#
#549000
0!
1#
#549500
1!
0#
#550000
0!
1#
#550500
1!
0#
#551000
0!
1#
#551500
1!
0#
#552000
0!
1#
#552500
1!
0#
#553000
0!
1#
#553500
1!
0#
#554000
0!
1#
#554500
1!
0#
#555000
0!
1#
#555500
1!
0#
#556000
0!
1#
#556500
1!
0#
#557000
0!
1#
#557500
1!
0#
#558000
0!
1#
#558500
1!
0#
#559000
0!
1#
#559500
1!
0#
#560000
0!
1#
#560500
1!
0#
#561000
0!
1#
#561500
1!
0#
#562000
0!
1#
#562500
1!
0#
#563000
0!
1#
#563500
1!
0#
#564000
0!
1#
#564500
1!
0#
#565000
0!
1#
#565500
1!
0#
#566000
0!
1#
#566500
1!
0#
#567000
0!
1#
#567500
1!
0#
#568000
0!
1#
#568500
1!
0#
#569000
0!
1#
#569500
1!
0#
#570000
0!
1#
#570500
1!
0#
#571000
0!
1#
#571500
1!
0#
#572000
0!
1#
#572500
1!
0#
#573000
0!
1#
#573500
1!
0#
#574000
0!
1#
#574500
1!
0#
#575000
0!
1#
#575500
1!
0#
#576000
0!
1#
#576500
1!
0#
#577000
0!
1#
#577500
1!
0#
#578000
0!
1#
#578500
1!
0#
#579000
0!
1#
#579500
1!
0#
#580000
0!
1#
#580500
1!
0#
#581000
0!
1#
#581500
1!
0#
#582000
0!
1#
#582500
1!
0#
#583000
0!
1#
#583500
1!
0#
#584000
0!
1#
#584500
1!
0#
#585000
0!
1#
#585500
1!
0#
#586000
0!
1#
#586500
1!
0#
#587000
0!
1#
#587500
1!
0#
#588000
0!
1#
#588500
1!
0#
#589000
0!
1#
#589500
1!
0#
#590000
0!
1#
#590500
1!
0#
