sign/simulation/qsim/unsign.msim.vcd
$comment
	File created using the following command:
		vcd file unsign.msim.vcd -direction
$end
$date
	Wed Nov 17 09:57:58 2021
$end
$version
	ModelSim Version 10.1d
$end
$timescale
	1ps
$end
$scope module unsign_vlg_vec_tst $end
$var reg 1 ! clk $end
$var reg 1 " reset $end
$var reg 1 # start $end
$var reg 4 $ word1 [3:0] $end
$var reg 4 % word2 [3:0] $end
$var wire 1 & product [7] $end
$var wire 1 ' product [6] $end
$var wire 1 ( product [5] $end
$var wire 1 ) product [4] $end
$var wire 1 * product [3] $end
$var wire 1 + product [2] $end
$var wire 1 , product [1] $end
$var wire 1 - product [0] $end
$var wire 1 . ready $end
$var wire 1 / sampler $end
$scope module i1 $end
$var wire 1 0 gnd $end
$var wire 1 1 vcc $end
$var wire 1 2 unknown $end
$var tri1 1 3 devclrn $end
$var tri1 1 4 devpor $end
$var tri1 1 5 devoe $end
$var wire 1 6 u1|sum[0]~0_combout $end
$var wire 1 7 u2|state.s7~regout $end
$var wire 1 8 u2|state.s6~regout $end
$var wire 1 9 u2|Selector6~0_combout $end
$var wire 1 : u2|Selector5~0_combout $end
$var wire 1 ; clk~combout $end
$var wire 1 < clk~clkctrl_outclk $end
$var wire 1 = start~combout $end
$var wire 1 > u2|Selector7~0_combout $end
$var wire 1 ? reset~combout $end
$var wire 1 @ reset~clkctrl_outclk $end
$var wire 1 A u2|state.s8~regout $end
$var wire 1 B u2|Selector0~0_combout $end
$var wire 1 C u2|Selector0~1_combout $end
$var wire 1 D u2|state.s0~regout $end
$var wire 1 E u1|product~2_combout $end
$var wire 1 F u2|load~combout $end
$var wire 1 G u2|state.s1~regout $end
$var wire 1 H u2|Selector1~0_combout $end
$var wire 1 I u2|state.s2~regout $end
$var wire 1 J u2|Selector2~0_combout $end
$var wire 1 K u2|state.s3~regout $end
$var wire 1 L u2|Selector3~0_combout $end
$var wire 1 M u2|state.s4~regout $end
$var wire 1 N u2|shift~1_combout $end
$var wire 1 O u1|product[4]~3_combout $end
$var wire 1 P u1|product~4_combout $end
$var wire 1 Q u1|product~6_combout $end
$var wire 1 R u1|product~5_combout $end
$var wire 1 S u1|product~7_combout $end
$var wire 1 T u1|sum[0]~1 $end
$var wire 1 U u1|sum[1]~2_combout $end
$var wire 1 V u1|product~9_combout $end
$var wire 1 W u2|Selector4~0_combout $end
$var wire 1 X u2|state.s5~regout $end
$var wire 1 Y u2|shift~0_combout $end
$var wire 1 Z u1|product[4]~12_combout $end
$var wire 1 [ u1|product~8_combout $end
$var wire 1 \ u1|sum[1]~3 $end
$var wire 1 ] u1|sum[2]~4_combout $end
$var wire 1 ^ u1|product~10_combout $end
$var wire 1 _ u1|carry~2_combout $end
$var wire 1 ` u1|sum[2]~5 $end
$var wire 1 a u1|sum[3]~7 $end
$var wire 1 b u1|Add0~0_combout $end
$var wire 1 c u1|carry~5_combout $end
$var wire 1 d u1|carry~3_combout $end
$var wire 1 e u1|carry~4_combout $end
$var wire 1 f u1|carry~regout $end
$var wire 1 g u1|sum[3]~6_combout $end
$var wire 1 h u1|product~11_combout $end
$var wire 1 i u2|ready~combout $end
$var wire 1 j word2~combout [3] $end
$var wire 1 k word2~combout [2] $end
$var wire 1 l word2~combout [1] $end
$var wire 1 m word2~combout [0] $end
$var wire 1 n u1|multiplicand [3] $end
$var wire 1 o u1|multiplicand [2] $end
$var wire 1 p u1|multiplicand [1] $end
$var wire 1 q u1|multiplicand [0] $end
$var wire 1 r u1|product [7] $end
$var wire 1 s u1|product [6] $end
$var wire 1 t u1|product [5] $end
$var wire 1 u u1|product [4] $end
$var wire 1 v u1|product [3] $end
$var wire 1 w u1|product [2] $end
$var wire 1 x u1|product [1] $end
$var wire 1 y u1|product [0] $end
$var wire 1 z word1~combout [3] $end
$var wire 1 { word1~combout [2] $end
$var wire 1 | word1~combout [1] $end
$var wire 1 } word1~combout [0] $end
$upscope $end
$upscope $end
$enddefinitions $end
#0
$dumpvars
0!
1"
0#
b0 $
b0 %
x-
x,
x+
x*
x)
x(
x'
x&
x.
x/
00
11
x2
13
14
15
x6
x7
x8
x9
x:
0;
x<
0=
x>
1?
x@
xA
xB
xC
xD
xE
xF
xG
xH
xI
xJ
xK
xL
xM
xN
xO
xP
xQ
xR
xS
xT
xU
xV
xW
xX
xY
xZ
x[
x\
x]
x^
x_
x`
xa
xb
xc
xd
xe
0f
xg
xh
xi
0m
0l
0k
0j
xq
xp
xo
xn
xy
xx
xw
xv
xu
xt
xs
xr
0}
0|
0{
0z
$end
#113
1@
#118
0<
#218
07
08
0n
0A
0D
0G
0I
0K
0M
0y
0x
0v
0w
0p
0q
0X
0t
0u
0o
0s
0r
#819
0L
#828
0W
#925
0T
#935
0:
#955
0H
#962
1Y
#968
1a
#973
1\
#976
0>
#988
0J
#989
0N
#998
09
#999
06
#1159
0`
#1168
0c
#1335
0U
#1378
0b
#1383
0]
#1569
0g
#1600
0S
#1664
0d
#1674
1i
#1713
0e
#1883
1B
0R
#1888
0Q
#1889
0P
#1895
0[
#2051
0V
#2092
0^
#2145
0Z
#2146
0_
#2148
0F
#2158
0E
#2281
0h
#2283
0C
#2666
0O
#3391
0+
#3399
0-
#3413
0*
#3611
0)
#3638
0,
#3825
0(
#3871
0&
#3912
0'
#4785
0.
#10000
1!
b1000 $
b1100 $
b1101 $
b1000 %
b1010 %
b1011 %
0/
#10832
1j
#10852
1{
1}
#10862
1z
#10872
1l
#10979
1m
#10999
1;
#11117
1<
#20000
0"
0!
1/
#20999
0;
0?
#21112
0@
#21117
0<
#22673
0i
#25784
1.
#30000
1#
1!
0/
#30979
1=
#30999
1;
#31117
1<
#32862
0B
#32867
1Q
#32868
1P
#33124
1Z
#33125
1_
#33127
1F
#33137
1E
#33262
1C
#33645
1O
#40000
0!
1/
#40999
0;
#41117
0<
#50000
1!
0/
#50999
1;
#51117
1<
#52896
1D
1G
1y
1x
1v
#52900
1n
1q
1o
#53219
0Y
#53390
1J
#53415
1H
#53521
0Q
#53522
0P
#53569
0Z
#53570
0_
#53571
0F
#53634
16
#53638
1]
#53674
1g
#53681
0J
#53691
1R
#53891
1i
#53923
1Z
#54089
0O
#54513
1[
#54516
1^
#54795
1h
#56077
1-
#56091
1*
#56316
1,
#57002
0.
#60000
0!
1/
#60999
0;
#61117
0<
#70000
1!
0/
#70999
1;
#71117
1<
#72896
0G
1I
#72900
1u
1s
1r
#73219
1Y
#73622
0a
#73633
0H
#73645
0g
#73658
1T
#73666
1J
#73667
1N
#73681
06
#73841
1`
#73865
0]
#73923
0Z
#74030
1Q
#74032
1b
#74068
1U
#74251
1g
#74274
1O
#74278
1S
#74357
0h
#74573
1c
#74577
0[
#74584
1Z
#74784
1V
#76293
1)
#76553
1&
#76594
1'
#80000
b101 $
b1 $
b0 $
b11 %
b1 %
b0 %
0#
0!
1/
#80832
0j
#80852
0{
0}
#80862
0z
#80872
0l
#80979
0=
0m
#80999
0;
#81117
0<
#90000
1!
0/
#90999
1;
#91117
1<
#92896
0I
1K
0x
1w
#92900
1t
0u
0r
#93497
1L
#93503
1[
#93598
0Y
#93645
0g
#93655
0\
#93658
0T
#93666
0J
#93667
0N
#93681
0E
16
#93682
1P
#93729
1\
#93863
0^
#94030
0Q
#94274
0O
#94278
0S
#94542
1d
#95089
1e
#96069
1+
#96293
0)
#96316
0,
#96507
1(
#96553
0&
#100000
0!
1/
#100999
0;
#101117
0<
#110000
1!
0/
#110999
1;
#111117
1<
#112896
0K
1M
1f
#112900
1u
0s
#113352
1N
#113497
0L
#113598
1Y
#113634
1W
#113658
1T
#113681
06
#113729
0\
#113959
1O
#113963
1S
#114030
1Q
#114068
0U
#114227
0d
#114378
1h
#114388
0V
#114774
0e
#116293
1)
#116594
0'
#120000
0!
1/
#120999
0;
#121117
0<
#130000
1!
0/
#130999
1;
#131117
1<
#132896
0M
0y
1x
1X
0f
#132900
0t
1r
#133352
0N
#133363
0Y
#133421
19
#133503
0[
#133634
0W
#133645
1g
#133655
1\
#133679
1U
#133681
1E
#133726
0`
#133826
0h
#133846
0c
#133863
1^
#134065
1]
#134136
0g
#136077
0-
#136316
1,
#136507
0(
#136553
1&
#140000
0!
1/
#140999
0;
#141117
0<
#150000
1!
0/
#150999
1;
#151117
1<
#152896
17
1y
0X
#152900
0u
1s
0r
#153423
1>
#153622
1a
#153639
09
#153645
1g
#153658
0T
#153681
16
#153818
0S
#153841
1`
#153846
1c
#153849
0O
#153863
0^
#153865
0]
#153912
0a
#154030
0Q
#154067
1V
#154068
0U
#154240
1d
#154251
0g
#154276
1^
#154555
1h
#154574
0^
#154577
1[
#154784
0V
#154787
1e
#154963
0h
#156077
1-
#156293
0)
#156553
0&
#156594
1'
#160000
0!
1/
#160999
0;
#161117
0<
#170000
1!
0/
#170999
1;
#171117
1<
#172896
07
1A
1f
#172900
1u
0s
#173466
1N
#173503
0C
#173640
1Y
#173654
0>
#173658
1T
#173681
06
#173841
0`
#173865
1]
#173912
1a
#174030
1Q
#174068
1U
#174073
1O
#174077
1S
#174251
1g
#174322
0b
#174341
0d
#174492
1h
#174577
0[
#174863
0c
#174888
0e
#176293
1)
#176594
0'
#180000
0!
1/
#180999
0;
#181117
0<
#190000
1!
0/
#190999
1;
#191117
1<
#192896
0A
0D
0f
#192900
0u
1r
#193466
0N
#193503
1C
#193515
1B
#193622
0a
#193645
0g
#193658
0T
#193681
16
#193826
0h
#193863
1^
#193891
0i
#193915
0C
#194030
0Q
#194032
1b
#194068
0U
#194073
0O
#194077
0S
#194383
0Z
#194497
1[
#194502
1V
#194573
1c
#194784
0V
#196293
0)
#196553
1&
#197002
1.
#200000
0!
1/
#200999
0;
#201117
0<
#210000
1!
0/
#210999
1;
#211117
1<
#220000
0!
1/
#220999
0;
#221117
0<
#230000
1!
0/
#230999
1;
#231117
1<
#240000
0!
1/
#240999
0;
#241117
0<
#250000
1!
0/
#250999
1;
#251117
1<
#260000
0!
1/
#260999
0;
#261117
0<
#270000
1!
0/
#270999
1;
#271117
1<
#280000
0!
1/
#280999
0;
#281117
0<
#290000
1!
0/
#290999
1;
#291117
1<
#300000
0!
1/
#300999
0;
#301117
0<
#310000
1!
0/
#310999
1;
#311117
1<
#320000
0!
1/
#320999
0;
#321117
0<
#330000
1!
0/
#330999
1;
#331117
1<
#340000
0!
1/
#340999
0;
#341117
0<
#350000
1!
0/
#350999
1;
#351117
1<
#360000
0!
1/
#360999
0;
#361117
0<
#370000
1!
0/
#370999
1;
#371117
1<
#380000
0!
1/
#380999
0;
#381117
0<
#390000
1!
0/
#390999
1;
#391117
1<
#400000
0!
1/
#400999
0;
#401117
0<
#410000
1!
0/
#410999
1;
#411117
1<
#420000
0!
1/
#420999
0;
#421117
0<
#430000
1!
0/
#430999
1;
#431117
1<
#440000
0!
1/
#440999
0;
#441117
0<
#450000
1!
0/
#450999
1;
#451117
1<
#460000
0!
1/
#460999
0;
#461117
0<
#470000
1!
0/
#470999
1;
#471117
1<
#480000
0!
1/
#480999
0;
#481117
0<
#490000
1!
0/
#490999
1;
#491117
1<
#500000
0!
1/
#500999
0;
#501117
0<
#510000
1!
0/
#510999
1;
#511117
1<
#520000
0!
1/
#520999
0;
#521117
0<
#530000
1!
0/
#530999
1;
#531117
1<
#540000
0!
1/
#540999
0;
#541117
0<
#550000
1!
0/
#550999
1;
#551117
1<
#560000
0!
1/
#560999
0;
#561117
0<
#570000
1!
0/
#570999
1;
#571117
1<
#580000
0!
1/
#580999
0;
#581117
0<
#590000
1!
0/
#590999
1;
#591117
1<
#600000
0!
1/
#600999
0;
#601117
0<
#610000
1!
0/
#610999
1;
#611117
1<
#620000
0!
1/
#620999
0;
#621117
0<
#630000
1!
0/
#630999
1;
#631117
1<
#640000
0!
1/
#640999
0;
#641117
0<
#650000
1!
0/
#650999
1;
#651117
1<
#660000
0!
1/
#660999
0;
#661117
0<
#670000
1!
0/
#670999
1;
#671117
1<
#680000
0!
1/
#680999
0;
#681117
0<
#690000
1!
0/
#690999
1;
#691117
1<
#700000
0!
1/
#700999
0;
#701117
0<
#710000
1!
0/
#710999
1;
#711117
1<
#720000
0!
1/
#720999
0;
#721117
0<
#730000
1!
0/
#730999
1;
#731117
1<
#740000
0!
1/
#740999
0;
#741117
0<
#750000
1!
0/
#750999
1;
#751117
1<
#760000
0!
1/
#760999
0;
#761117
0<
#770000
1!
0/
#770999
1;
#771117
1<
#780000
0!
1/
#780999
0;
#781117
0<
#790000
1!
0/
#790999
1;
#791117
1<
#800000
0!
1/
#800999
0;
#801117
0<
#810000
1!
0/
#810999
1;
#811117
1<
#820000
0!
1/
#820999
0;
#821117
0<
#830000
1!
0/
#830999
1;
#831117
1<
#840000
0!
1/
#840999
0;
#841117
0<
#850000
1!
0/
#850999
1;
#851117
1<
#860000
0!
1/
#860999
0;
#861117
0<
#870000
1!
0/
#870999
1;
#871117
1<
#880000
0!
1/
#880999
0;
#881117
0<
#890000
1!
0/
#890999
1;
#891117
1<
#900000
0!
1/
#900999
0;
#901117
0<
#910000
1!
0/
#910999
1;
#911117
1<
#920000
0!
1/
#920999
0;
#921117
0<
#930000
1!
0/
#930999
1;
#931117
1<
#940000
0!
1/
#940999
0;
#941117
0<
#950000
1!
0/
#950999
1;
#951117
1<
#960000
0!
1/
#960999
0;
#961117
0<
#970000
1!
0/
#970999
1;
#971117
1<
#980000
0!
1/
#980999
0;
#981117
0<
#990000
1!
0/
#990999
1;
