mulmul/simulation/qsim/mulmul.msim.vcd
$comment
	File created using the following command:
		vcd file mulmul.msim.vcd -direction
$end
$date
	Wed Nov 17 12:05:51 2021
$end
$version
	ModelSim Version 10.1d
$end
$timescale
	1ps
$end
$scope module mulmul_vlg_vec_tst $end
$var reg 1 ! clk $end
$var reg 1 " reset $end
$var reg 1 # sign $end
$var reg 1 $ start $end
$var reg 4 % word1 [3:0] $end
$var reg 4 & word2 [3:0] $end
$var wire 1 ' product [7] $end
$var wire 1 ( product [6] $end
$var wire 1 ) product [5] $end
$var wire 1 * product [4] $end
$var wire 1 + product [3] $end
$var wire 1 , product [2] $end
$var wire 1 - product [1] $end
$var wire 1 . product [0] $end
$var wire 1 / ready $end
$var wire 1 0 sampler $end
$scope module i1 $end
$var wire 1 1 gnd $end
$var wire 1 2 vcc $end
$var wire 1 3 unknown $end
$var tri1 1 4 devclrn $end
$var tri1 1 5 devpor $end
$var tri1 1 6 devoe $end
$var wire 1 7 clk~combout $end
$var wire 1 8 clk~clkctrl_outclk $end
$var wire 1 9 reset~combout $end
$var wire 1 : reset~clkctrl_outclk $end
$var wire 1 ; start~combout $end
$var wire 1 < u2|Selector1~0_combout $end
$var wire 1 = u2|state.s2~regout $end
$var wire 1 > u2|Selector2~0_combout $end
$var wire 1 ? u2|state.s3~regout $end
$var wire 1 @ u2|Selector3~0_combout $end
$var wire 1 A u2|state.s4~regout $end
$var wire 1 B u2|Selector4~0_combout $end
$var wire 1 C u2|state.s5~regout $end
$var wire 1 D u2|Selector5~0_combout $end
$var wire 1 E u2|state.s6~regout $end
$var wire 1 F u2|Selector6~0_combout $end
$var wire 1 G u2|state.s7~regout $end
$var wire 1 H u2|Selector7~0_combout $end
$var wire 1 I u2|state.s8~regout $end
$var wire 1 J u2|Selector0~0_combout $end
$var wire 1 K u2|Selector0~1_combout $end
$var wire 1 L u2|state.s0~regout $end
$var wire 1 M u2|load~combout $end
$var wire 1 N u1|sum[0]~1 $end
$var wire 1 O u1|sum[1]~2_combout $end
$var wire 1 P u2|shift~1_combout $end
$var wire 1 Q u1|product~7_combout $end
$var wire 1 R u2|state.s1~regout $end
$var wire 1 S u2|shift~0_combout $end
$var wire 1 T u1|product[7]~3_combout $end
$var wire 1 U u1|sum[1]~3 $end
$var wire 1 V u1|sum[2]~5 $end
$var wire 1 W u1|sum[3]~7 $end
$var wire 1 X u1|Add0~0_combout $end
$var wire 1 Y u1|carry~0_combout $end
$var wire 1 Z u1|carry~1_combout $end
$var wire 1 [ u1|carry~2_combout $end
$var wire 1 \ u1|carry~regout $end
$var wire 1 ] u1|sum[3]~6_combout $end
$var wire 1 ^ u1|product~11_combout $end
$var wire 1 _ u1|product[7]~12_combout $end
$var wire 1 ` u1|sum[2]~4_combout $end
$var wire 1 a u1|product~10_combout $end
$var wire 1 b u1|product~9_combout $end
$var wire 1 c u1|sum[0]~0_combout $end
$var wire 1 d u1|product~8_combout $end
$var wire 1 e u1|product~6_combout $end
$var wire 1 f u1|product~5_combout $end
$var wire 1 g u1|product~4_combout $end
$var wire 1 h u1|product~2_combout $end
$var wire 1 i sign~combout $end
$var wire 1 j u4|count[1]~0_combout $end
$var wire 1 k u4|state~0_combout $end
$var wire 1 l u4|state~regout $end
$var wire 1 m u3|product~4_combout $end
$var wire 1 n u4|load~combout $end
$var wire 1 o u4|count[0]~1_combout $end
$var wire 1 p u3|Add0~0_combout $end
$var wire 1 q u4|Equal0~0_combout $end
$var wire 1 r u3|Add0~2_cout $end
$var wire 1 s u3|Add0~3_combout $end
$var wire 1 t u3|product~5_combout $end
$var wire 1 u u3|product~6_combout $end
$var wire 1 v u3|product~3_combout $end
$var wire 1 w u3|product~1_combout $end
$var wire 1 x u3|product~2_combout $end
$var wire 1 y u3|product~0_combout $end
$var wire 1 z product~0_combout $end
$var wire 1 { product~1_combout $end
$var wire 1 | product~2_combout $end
$var wire 1 } product~3_combout $end
$var wire 1 ~ u4|shift~0_combout $end
$var wire 1 !! u3|Add0~8_combout $end
$var wire 1 "! u3|Add0~5_combout $end
$var wire 1 #! u3|Add0~4 $end
$var wire 1 $! u3|Add0~7 $end
$var wire 1 %! u3|Add0~9_combout $end
$var wire 1 &! u3|product~8_combout $end
$var wire 1 '! u3|Add0~6_combout $end
$var wire 1 (! u3|product~7_combout $end
$var wire 1 )! product~4_combout $end
$var wire 1 *! product~5_combout $end
$var wire 1 +! u3|Add0~11_combout $end
$var wire 1 ,! u3|Add0~10 $end
$var wire 1 -! u3|Add0~12_combout $end
$var wire 1 .! u3|product~9_combout $end
$var wire 1 /! product~6_combout $end
$var wire 1 0! u3|Add0~13 $end
$var wire 1 1! u3|Add0~14_combout $end
$var wire 1 2! u3|product~10_combout $end
$var wire 1 3! u3|product~11_combout $end
$var wire 1 4! product~7_combout $end
$var wire 1 5! ready~0_combout $end
$var wire 1 6! u3|multiplicand [3] $end
$var wire 1 7! u3|multiplicand [2] $end
$var wire 1 8! u3|multiplicand [1] $end
$var wire 1 9! u3|multiplicand [0] $end
$var wire 1 :! u3|product [7] $end
$var wire 1 ;! u3|product [6] $end
$var wire 1 <! u3|product [5] $end
$var wire 1 =! u3|product [4] $end
$var wire 1 >! u3|product [3] $end
$var wire 1 ?! u3|product [2] $end
$var wire 1 @! u3|product [1] $end
$var wire 1 A! u3|product [0] $end
$var wire 1 B! word1~combout [3] $end
$var wire 1 C! word1~combout [2] $end
$var wire 1 D! word1~combout [1] $end
$var wire 1 E! word1~combout [0] $end
$var wire 1 F! word2~combout [3] $end
$var wire 1 G! word2~combout [2] $end
$var wire 1 H! word2~combout [1] $end
$var wire 1 I! word2~combout [0] $end
$var wire 1 J! u4|count [1] $end
$var wire 1 K! u4|count [0] $end
$var wire 1 L! u1|product [7] $end
$var wire 1 M! u1|product [6] $end
$var wire 1 N! u1|product [5] $end
$var wire 1 O! u1|product [4] $end
$var wire 1 P! u1|product [3] $end
$var wire 1 Q! u1|product [2] $end
$var wire 1 R! u1|product [1] $end
$var wire 1 S! u1|product [0] $end
$var wire 1 T! u1|multiplicand [3] $end
$var wire 1 U! u1|multiplicand [2] $end
$var wire 1 V! u1|multiplicand [1] $end
$var wire 1 W! u1|multiplicand [0] $end
$upscope $end
$upscope $end
$enddefinitions $end
#0
$dumpvars
0!
1"
0#
0$
b0 %
b0 &
x.
x-
x,
x+
x*
x)
x(
x'
x/
x0
01
12
x3
14
15
16
07
x8
19
x:
0;
x<
x=
x>
x?
x@
xA
xB
xC
xD
xE
xF
xG
xH
xI
xJ
xK
xL
xM
xN
xO
xP
xQ
xR
xS
xT
xU
xV
xW
xX
xY
xZ
x[
0\
x]
x^
x_
x`
xa
xb
xc
xd
xe
xf
xg
xh
0i
xj
xk
xl
xm
xn
xo
xp
xq
xr
xs
xt
xu
xv
xw
xx
xy
xz
x{
x|
x}
x~
x!!
x"!
x#!
x$!
x%!
x&!
x'!
x(!
x)!
x*!
x+!
x,!
x-!
x.!
x/!
x0!
x1!
x2!
x3!
x4!
x5!
x9!
x8!
x7!
x6!
xA!
x@!
x?!
x>!
x=!
x<!
x;!
x:!
0E!
0D!
0C!
0B!
0I!
0H!
0G!
0F!
xK!
xJ!
xS!
xR!
xQ!
xP!
xO!
xN!
xM!
xL!
xW!
xV!
xU!
xT!
$end
#112
1:
#114
08
#218
06!
08!
07!
09!
0T!
0=
0?
0A
0C
0E
0G
0I
0L
0V!
0W!
0R
0U!
0L!
0M!
0N!
0O!
0P!
0Q!
0R!
0S!
0J!
0l
0K!
0>!
0?!
0@!
0A!
0<!
0=!
0;!
0:!
#677
0q
#695
0@
#704
0H
#823
0F
#835
02!
#916
0N
#949
0{
#954
1W
#963
1S
#967
0D
#968
0V
#971
1U
#983
0p
0!!
0"!
0+!
#984
0|
#985
0c
#998
0P
0B
#1014
0<
0>
#1116
0)!
#1119
0Y
#1150
0*!
#1186
04!
#1215
0/!
#1219
0}
#1281
0~
#1326
0O
#1356
0t
#1364
0X
#1378
0]
#1381
0`
#1391
0z
#1425
0r
#1526
0Z
#1639
03!
#1698
0Q
#1711
0d
#1777
1#!
#1822
1,!
#1827
00!
#1835
0s
#1916
0$!
#1938
0[
#1957
0a
#2095
0^
#2184
0b
#2187
0'!
#2232
0-!
#2237
01!
#2326
0%!
#2625
0.!
#2717
0(!
#2799
0y
#2803
0h
#2872
0&!
#3058
15!
#4366
0-
#4673
0*
#4701
0'
#4709
0)
#4740
0,
#4780
0(
#4933
0.
#4961
0+
#5166
0x
#5167
0e
#5185
0m
#5196
0j
#5200
0k
#5201
0o
#5283
0M
#5293
0v
#5423
0_
#5436
0g
0f
#5457
0w
#5506
0n
#5531
1J
#5682
0u
#5704
0T
#5921
0K
#6768
0/
#10000
b1000 %
b1100 %
b1101 %
b1000 &
b1010 &
b1011 &
00
#10812
1H!
#10822
1B!
#10832
1F!
#10852
1C!
1E!
#10959
1I!
#40000
1!
0"
10
#40989
09
17
#41101
0:
#41103
18
#44047
05!
#47757
1/
#50000
1$
00
#50822
1;
#55971
1m
#56018
1j
#56022
1k
#56023
1o
#56059
1g
#56061
1h
#56103
1e
#56105
1M
#56245
1_
#56279
1w
#56328
1n
#56353
0J
#56364
1x
#56365
1y
#56468
1u
#56526
1T
#56743
1K
#80000
0!
10
#80989
07
#81103
08
#120000
1!
00
#120989
17
#121103
18
#123158
1L
1R
1P!
1R!
1S!
1@!
1A!
#123159
16!
17!
19!
1T!
1W!
1U!
1J!
1l
1K!
1>!
#123481
0_
#123482
1q
0k
1p
1!!
1+!
#123628
0e
#123636
0M
#123771
0S
#123876
15!
#123884
1c
#123885
1`
#123889
1{
#123919
1]
#123965
0n
#124057
0T
#124081
11!
#124084
1}
#124092
0m
#124096
1v
#124196
0g
#124197
1f
#124223
1<
#124285
1k
#124299
1s
#124331
1z
#124344
1%!
#124353
1-!
#124364
0x
#124384
0o
#124510
1_
#124589
0u
#124618
13!
#124680
1^
#124682
1d
#124697
1t
#124746
1.!
#124890
1&!
#124951
1a
#125090
1u
#127306
1-
#127586
0/
#127826
1+
#127873
1.
#140000
1#
b101 %
b1 %
b0 %
b11 &
b1 &
b0 &
0$
10
#140812
0H!
#140822
0;
0B!
#140832
0F!
#140852
0C!
0E!
#140959
0I!
1i
#160000
0!
00
#160989
07
#161103
08
#200000
1!
10
#200989
17
#201103
18
#203158
1=
0R
1?!
0@!
#203159
1L!
1M!
1O!
0K!
1<!
1;!
1:!
#203613
0{
0y
#203730
1>
#203732
1P
#203743
1x
#203771
1S
#203817
14!
#203863
0W
#203886
0]
#203889
1|
#203903
1N
#203909
1V
#203926
0c
#203929
10!
#203933
0`
#203953
0-!
#203954
0<
#204076
1e
#204091
0,!
1*!
#204115
0%!
#204117
1'!
#204156
1/!
#204273
1X
#204313
1O
#204319
1]
#204346
0.!
#204379
0j
#204384
1o
#204432
1Q
1T
#204501
1-!
#204509
0a
#204647
1(!
#204652
0d
#204661
0&!
#204796
1Y
#204894
1.!
#205055
0^
#205171
1b
#205371
1a
#207030
0-
#207332
1'
#207645
1,
#207650
1)
#207721
1(
#240000
0!
00
#240989
07
#241103
08
#280000
1!
10
#280989
17
#281103
18
#283158
0=
1?
1Q!
0R!
1@!
0A!
#283159
0L!
1N!
0O!
0J!
1K!
0<!
1=!
#283613
1{
1y
#283635
1@
#283730
0>
#283732
0P
#283746
1g
#283886
0]
#283889
0h
#283903
0N
0S
#283910
0#!
#283926
1c
#283934
0s
#283950
0a
#284049
12!
#284051
0z
#284052
1~
#284057
1)!
#284076
0e
#284091
0*!
#284161
0_
#284286
0o
#284321
03!
#284432
0Q
0T
#284466
1Z
#284642
1_
#284688
1d
#284853
13!
#284878
1[
#284978
0(!
#285152
1&!
#287030
1-
#287593
0.
#287614
1*
#287650
0)
#320000
0!
00
#320989
07
#321103
08
#360000
1!
10
#360989
17
#361103
18
#363158
0?
1A
1\
1A!
#363159
0M!
1O!
0K!
1<!
0=!
#363482
0q
#363635
0@
1P
#363638
1B
#363869
0p
#363875
1"!
#363888
1(!
#363903
1N
1S
#363909
0V
#363910
1#!
#363926
0c
#363933
1`
#363934
1s
#363935
0t
#363974
0U
#363980
1W
#364045
1V
#364049
02!
#364051
1z
#364052
0~
#364057
0)!
#364076
1e
#364091
1*!
#364116
0W
#364123
1r
#364183
0!!
0+!
#364194
0#!
#364295
0Z
#364313
0O
#364328
0u
#364332
1t
#364335
1Q
1T
#364353
1$!
#364384
0k
0`
#364509
1a
#364652
0d
#364663
1#!
#364707
0[
#364725
1u
#364782
01!
#364960
0a
#365054
0-!
#365073
0'!
#365152
0&!
#365171
0b
#365277
1^
#365280
1d
#365319
03!
#365447
0.!
#365603
0(!
#367593
1.
#367614
0*
#367650
1)
#400000
0!
00
#400989
07
#401103
08
#440000
1!
10
#440989
17
#441103
18
#443158
0A
1C
0\
1R!
0S!
#443159
1L!
0N!
0l
0<!
0;!
0:!
#443635
0P
#443638
0B
#443817
04!
#443860
0w
#443862
0S
#443886
1]
#443889
1h
#443907
1D
#443912
1U
#443924
1p
1!!
0"!
1+!
#443929
00!
#443936
1O
#443950
1a
#443953
1-!
#443983
0V
#444059
0Y
#444064
0_
#444066
1F
#444091
1,!
0*!
#444092
1m
#444115
1%!
#444117
1'!
#444156
0/!
#444183
0$!
#444216
0t
#444222
0D
#444309
0^
#444322
1`
#444346
1.!
#444366
0r
#444370
05!
#444393
0]
#444425
1Z
#444523
11!
#444599
0Z
#444601
1_
#444647
1(!
#444661
1&!
#444688
0d
#444792
0'!
#445322
0(!
#447332
0'
#447650
0)
#447721
0(
#448080
1/
#480000
0!
00
#480989
07
#481103
08
#520000
1!
10
#520989
17
#521103
18
#523158
0C
1G
1S!
#523159
0L!
1M!
0O!
#523763
0F
#523815
0Q
#523816
1b
#523863
1W
#523886
1]
#523903
0N
#523909
1V
#523926
1c
#523933
0`
#523950
0a
#523980
0W
#524059
1Y
#524076
0e
#524215
1H
#524313
0O
#524319
0]
#524390
0T
#524577
0b
#524599
1Z
#525011
1[
#525015
1d
#560000
0!
00
#560989
07
#561103
08
#570000
1"
b1000 %
b1100 %
b1101 %
b1000 &
b1010 &
b1011 &
10
#570812
1H!
#570822
1B!
#570832
1F!
#570852
1C!
1E!
#570959
1I!
#570989
19
#571101
1:
#573126
0G
0L
0P!
0Q!
0R!
0S!
0?!
0@!
0A!
#573127
06!
07!
09!
0T!
0W!
0U!
0M!
0>!
#573450
0p
0!!
0+!
#573581
0{
0y
#573612
0H
#573613
1S
#573711
0x
#573714
0g
#573723
0m
#573783
1Q
#573826
0V
#573844
1J
#573852
0c
#573857
0|
0h
#573863
1W
#573916
0f
#573985
0[
#574019
0z
#574027
0Y
#574047
15!
#574049
01!
#574128
0}
#574176
0Z
#574220
0u
#574234
0K
#574267
0s
#574269
0v
#574273
0X
#574312
0%!
#574321
0-!
#574345
0Q
#574352
0_
#574578
0d
#574714
0.!
#574858
0&!
#576998
0-
#577561
0.
#577613
0,
#577757
0/
#577870
0+
#600000
1!
0"
00
#600989
09
17
#601101
0:
#601103
18
#604047
05!
#607757
1/
#610000
1$
10
#610822
1;
#615971
1m
#616018
1j
#616022
1k
#616023
1o
#616059
1g
#616061
1h
#616103
1e
#616105
1M
#616245
1_
#616279
1w
#616328
1n
#616353
0J
#616364
1x
#616365
1y
#616468
1u
#616526
1T
#616743
1K
#640000
0!
00
#640989
07
#641103
08
#680000
1!
10
#680989
17
#681103
18
#683158
1L
1R
1P!
1R!
1S!
1@!
1A!
#683159
16!
17!
19!
1T!
1W!
1U!
1J!
1l
1K!
1>!
#683481
0_
#683482
1q
0k
1p
1!!
1+!
#683613
1{
#683628
0e
#683636
0M
#683771
0S
#683884
1c
#683885
1`
#683919
1]
#683965
0n
#684051
1z
#684057
0T
#684081
11!
#684092
0m
#684096
1v
#684160
1}
#684196
0g
#684197
1f
#684223
1<
#684285
1k
#684299
1s
#684344
1%!
#684353
1-!
#684364
0x
#684370
15!
#684384
0o
#684510
1_
#684589
0u
#684618
13!
#684680
1^
#684682
1d
#684697
1t
#684746
1.!
#684890
1&!
#684951
1a
#685090
1u
#687030
1-
#687593
1.
#687902
1+
#688080
0/
#700000
0$
00
#700822
0;
#720000
0!
10
#720989
07
#721103
08
#760000
1!
00
#760989
17
#761103
18
#763158
1=
0R
1?!
0@!
#763159
1L!
1M!
1O!
0K!
1<!
1;!
1:!
#763613
0{
0y
#763730
1>
#763732
1P
#763743
1x
#763771
1S
#763817
14!
#763863
0W
#763886
0]
#763889
1|
#763903
1N
#763909
1V
#763926
0c
#763929
10!
#763933
0`
#763953
0-!
#763954
0<
#764076
1e
#764091
0,!
1*!
#764115
0%!
#764117
1'!
#764156
1/!
#764273
1X
#764313
1O
#764319
1]
#764346
0.!
#764379
0j
#764384
1o
#764432
1Q
1T
#764501
1-!
#764509
0a
#764647
1(!
#764652
0d
#764661
0&!
#764796
1Y
#764894
1.!
#765055
0^
#765171
1b
#765371
1a
#767030
0-
#767332
1'
#767645
1,
#767650
1)
#767721
1(
#780000
b101 %
b1 %
b0 %
b11 &
b1 &
b0 &
10
#780812
0H!
#780822
0B!
#780832
0F!
#780852
0C!
0E!
#780959
0I!
#800000
0!
00
#800989
07
#801103
08
#840000
1!
10
#840989
17
#841103
18
#843158
0=
1?
1Q!
0R!
1@!
0A!
#843159
0L!
1N!
0O!
0J!
1K!
0<!
1=!
#843613
1{
1y
#843635
1@
#843730
0>
#843732
0P
#843746
1g
#843886
0]
#843889
0h
#843903
0N
0S
#843910
0#!
#843926
1c
#843934
0s
#843950
0a
#844049
12!
#844051
0z
#844052
1~
#844057
1)!
#844076
0e
#844091
0*!
#844161
0_
#844286
0o
#844321
03!
#844432
0Q
0T
#844466
1Z
#844642
1_
#844688
1d
#844853
13!
#844878
1[
#844978
0(!
#845152
1&!
#847030
1-
#847593
0.
#847614
1*
#847650
0)
#880000
0!
00
#880989
07
#881103
08
#920000
1!
10
#920989
17
#921103
18
#923158
0?
1A
1\
1A!
#923159
0M!
1O!
0K!
1<!
0=!
#923482
0q
#923635
0@
1P
#923638
1B
#923869
0p
#923875
1"!
#923888
1(!
#923903
1N
1S
#923909
0V
#923910
1#!
#923926
0c
#923933
1`
#923934
1s
#923935
0t
#923974
0U
#923980
1W
#924045
1V
#924049
02!
#924051
1z
#924052
0~
#924057
0)!
#924076
1e
#924091
1*!
#924116
0W
#924123
1r
#924183
0!!
0+!
#924194
0#!
#924295
0Z
#924313
0O
#924328
0u
#924332
1t
#924335
1Q
1T
#924353
1$!
#924384
0k
0`
#924509
1a
#924652
0d
#924663
1#!
#924707
0[
#924725
1u
#924782
01!
#924960
0a
#925054
0-!
#925073
0'!
#925152
0&!
#925171
0b
#925277
1^
#925280
1d
#925319
03!
#925447
0.!
#925603
0(!
#927593
1.
#927614
0*
#927650
1)
#960000
0!
00
#960989
07
